[gd_scene load_steps=7 format=2]

[ext_resource path="res://scene/Cursor.gd" type="Script" id=1]
[ext_resource path="res://sfx/cursor_size.wav" type="AudioStream" id=2]
[ext_resource path="res://sfx/hsv.wav" type="AudioStream" id=3]
[ext_resource path="res://sfx/bonk.wav" type="AudioStream" id=4]
[ext_resource path="res://sfx/rotate.wav" type="AudioStream" id=5]

[sub_resource type="CircleShape2D" id=1]
radius = 1.0

[node name="Cursor" type="Control"]
anchor_right = 1.0
anchor_bottom = 1.0
script = ExtResource( 1 )

[node name="value" type="AudioStreamPlayer" parent="."]
stream = ExtResource( 3 )
volume_db = -80.0
pitch_scale = 1.66
autoplay = true

[node name="radius" type="AudioStreamPlayer" parent="."]
stream = ExtResource( 2 )
volume_db = -24.0

[node name="bonk" type="AudioStreamPlayer" parent="."]
stream = ExtResource( 4 )
volume_db = -12.0

[node name="rotation" type="AudioStreamPlayer" parent="."]
stream = ExtResource( 5 )
volume_db = -12.0

[node name="Detection" type="Area2D" parent="."]
monitoring = false

[node name="CollisionShape2D" type="CollisionShape2D" parent="Detection"]
shape = SubResource( 1 )
